<<<<<<< HEAD
[17:18:52] WARNING: duration < 3600!
[17:18:52] WARNING: filling 1% of the playlist with random musics
=======
[16:25:16] INFO: created logger 'log' in logger
[16:25:16] DEBUG: handlers: 3
[16:25:17] INFO: connecting to database...
[16:25:17] INFO: Connected to database!
[16:25:17] INFO: all queries done, total musics count: 0
[16:25:17] WARNING: filling 100 of the playlist with random musics
[16:25:17] INFO: creating music list of lenght > args.duration*prop
[16:25:17] DEBUG: column==titre ; expr==.* ; prop==100
[16:25:17] INFO: getting matching result from database...
[16:25:17] DEBUG: column==titre expr==.*
[16:25:17] DEBUG: query==SELECT chemin, duree FROM morceaux WHERE titre ~ '.*' 
[16:25:17] INFO: rows found:1402
[16:25:17] INFO: created sub music list
[16:25:17] DEBUG: count: 1223 ; duration: 360052 ; expected duration: 360000
[16:25:17] INFO: disconnecting from database...
[16:25:17] INFO: mixed musics
[16:25:17] INFO: mixed final playlist
[16:25:17] INFO: outputing to console...
>>>>>>> bf4f677c0cbb55d253a68ebad088298d4a9a5f68
