<<<<<<< HEAD
[17:26:35] WARNING: duration < 3600!
=======
[17:04:35] INFO: created logger 'log' in logger
[17:04:35] DEBUG: handlers: 3
[17:04:35] INFO: connecting to database...
[17:04:35] INFO: Connected to database!
[17:04:35] INFO: all queries done, total musics count: 0
[17:04:35] WARNING: filling 100 of the playlist with random musics
[17:04:35] INFO: creating music list of lenght > args.duration*prop
[17:04:35] DEBUG: column==titre ; expr==.* ; prop==100
[17:04:35] INFO: getting matching result from database...
[17:04:35] DEBUG: column==titre expr==.*
[17:04:35] DEBUG: query==SELECT chemin, duree FROM morceaux WHERE titre ~ '.*' 
[17:04:35] INFO: rows found:1402
[17:04:35] INFO: created sub music list
[17:04:35] DEBUG: count: 1222 ; duration: 360301 ; expected duration: 360000
[17:04:35] INFO: disconnecting from database...
[17:04:35] INFO: mixed musics
[17:04:35] INFO: mixed final playlist
[17:04:35] INFO: outputing to console...
>>>>>>> bf4f677c0cbb55d253a68ebad088298d4a9a5f68
