<<<<<<< HEAD
[17:26:51] WARNING: duration < 3600!
[17:26:51] WARNING: filling 1% of the playlist with random musics
=======
[17:05:54] INFO: created logger 'log' in logger
[17:05:54] DEBUG: handlers: 3
[17:05:54] INFO: connecting to database...
[17:05:54] INFO: Connected to database!
[17:05:54] INFO: all queries done, total musics count: 0
[17:05:54] WARNING: filling 100 of the playlist with random musics
[17:05:54] INFO: creating music list of lenght > args.duration*prop
[17:05:54] DEBUG: column==titre ; expr==.* ; prop==100
[17:05:54] INFO: getting matching result from database...
[17:05:54] DEBUG: column==titre expr==.*
[17:05:54] DEBUG: query==SELECT chemin, duree FROM morceaux WHERE titre ~ '.*' 
[17:05:54] INFO: rows found:1402
[17:05:54] INFO: created sub music list
[17:05:54] DEBUG: count: 1246 ; duration: 360124 ; expected duration: 360000
[17:05:54] INFO: disconnecting from database...
[17:05:54] INFO: mixed musics
[17:05:54] INFO: mixed final playlist
[17:05:54] INFO: outputing to console...
>>>>>>> bf4f677c0cbb55d253a68ebad088298d4a9a5f68
