\relax 
\@writefile{toc}{\contentsline {section}{\numberline {1}Introduction}{1}}
\@writefile{toc}{\contentsline {section}{\numberline {2}Installation}{1}}
\@writefile{toc}{\contentsline {subsection}{\numberline {2.1}Install from source package}{1}}
\@writefile{toc}{\contentsline {subsubsection}{\numberline {2.1.1}Unistall from source package}{1}}
\@writefile{toc}{\contentsline {subsection}{\numberline {2.2}Install from debian binary package}{1}}
\@writefile{toc}{\contentsline {subsubsection}{\numberline {2.2.1}Remove from debian binary package}{1}}
\@writefile{toc}{\contentsline {section}{\numberline {3}Usage}{1}}
\@writefile{toc}{\contentsline {subsection}{\numberline {3.1}Synopsis}{1}}
\@writefile{toc}{\contentsline {subsection}{\numberline {3.2}Options}{2}}
\@writefile{toc}{\contentsline {subsection}{\numberline {3.3}Exemples}{2}}
\@writefile{toc}{\contentsline {subsection}{\numberline {3.4}Note}{2}}
\@writefile{toc}{\contentsline {section}{\numberline {4}Glossary}{3}}
\@writefile{toc}{\contentsline {subsection}{\numberline {4.1}Proportion:}{3}}
\@writefile{toc}{\contentsline {section}{\numberline {5}License}{3}}
